{
 	"YES": "Sim",
 	"NO": "Não",
 	"CANCEL":	"Cancelar",
 	"PLAY": "Jogar",
 	"BACK": "Voltar",
	"RATE_INFO": "Se você gostou do jogo, ajude a divulgá-lo, dando-lhe uma classificação.",
	"SCORE": "pontos",
	"SAVE_GAME": "Tem um jogo inacabado. Deseja retomá-lo?",
	"INTERNET_CONNECTION":	"Você não está conectado à Internet.",
	"LOADING": "carregando",
	"WAIT": "Aguarde",
	"OPPONENT_LEFT":	"Seu oponente deixou o jogo.",
	"QUICK_GAME": "Jogo rápido",
	"INVITE_PLAYERS": "Convidar jogadores",
	"INVITATIONS": "Convites",
	"HAS_INVITED": "convidou você para o jogo.",
	"YOUR_NICKNAME": "Seu apelido",
	"POPUP_SIGN_IN_O": "Entre com sua conta Google",
	"EXIT_GAME": "Tem certeza de que pretende sair?",
	"EXIT_GAME_SCENE": "Sair do jogo?",
	"RESET_PROGRESS_TEXT": "Tem certeza de que pretende zerar seu progresso atual?",
	"CLASSIC_MODE":	"Modo clássico",
	"ADVANCED_MODE":	"Modo avançado",
	"MODE_10X10": "10x10",
	"MODE_20X20": "20x20",
	"BATTLE": "Às armas!",
	"SIGN_IN": "Entrar",
	"SIGN_OUT": "Sair",
	"PROFILE": "Perfil",
	"WINS_BATTLES": "vitórias/batalhas",
	"RESET_PROGRESS": "Zerar progresso",
	"NAME": "Nome",
	"EASY": "Fácil",
	"NORMAL": "Normal",
	"HARD": "Difícil",
	"CAPTAIN_DROID": "Capitão Droid",
	"CAPTAIN_JACK": "Capitão Jack",
	"HELP_FIGHTER": "O avião de combate ataca a área 2x5 designada.",
	"HELP_TORPEDON": "O torpedeiro lança um torpedo no campo do oponente. O torpedo percorre toda a linha horizontal designada até atingir um navio.",
	"HELP_BOMBER": "O bombardeiro lança 5 bombas na área 3x3 designada. Cada bomba atinge uma célula.",
	"HELP_A_BOMBER": "Use esta arma por sua conta e risco.",
	"HELP_PVO": "O sistema de defesa antiaérea é usado para evitar ataques aéreos. Durante a configuração inicial, é exibida sua zona de atuação, definida como duas linhas horizontais. Se a fuselagem do avião do oponente entrar nessa zona, o avião será destruído.",
	"HELP_LOCATOR": "O radar exibe a localização dos navios do oponente na zona 3x3 designada.",
	"HELP_MINE": "As minas podem ser colocadas em qualquer célula da área de jogo. Se o oponente atingir uma de suas minas, a célula correspondente da área inimiga será revelada. As minas destroem os torpedos e submarinos inimigos.",
	"HELP_SUBMARINE": "O submarino só pode ser enviado para células livres no campo do oponente. O submarino lança aleatoriamente 2 torpedos na vertical.",
	"PVO_POPUP": "O sistema de defensa antiaérea é automático.",
	"SUBMARINE_POPUP": "Não há espaço suficiente no campo do oponente para um submarino.",
	"CATEGORY": "Categoria",
	"RANK": "Patente",
	"POINTS": "Pontos",
	"OPPONENT_COWARD": "Seu oponente se rendeu.",
	"INFO_IF_YOU_EXIT": "Você perderá a batalha se sair agora.",
	"COWARD": "se rendeu",
	"SLEEP": "caiu no sono",
	"WAITING_OPPONENT": "Esperando o oponente",
	"SHOW_INCOMING": "exibir em aproximação",
	"CHAT0_0": "Oi",
	"CHAT0_1": "Tchau",
	"CHAT0_2": "Sim",
	"CHAT0_3": "Não",
	"CHAT0_4": "Vamos",
	"CHAT0_5": "Afirmativo",
	"CHAT0_6": "Não sei",
	"CHAT0_7": "Talvez",
	"CHAT0_8": "Com certeza!",
	"CHAT1_0": "Bom tiro",
	"CHAT1_1": "Legal!",
	"CHAT1_2": "Você é o cara!",
	"CHAT1_3": "Uau!",
	"CHAT1_4": "Você é um excelente jogador!",
	"CHAT1_5": "Bom trabalho",
	"CHAT1_6": "Nunca desista!",
	"CHAT1_7": "Acredito em você!",
	"CHAT2_0": "Na mosca! Oba!",
	"CHAT2_1": "Falhou!",
	"CHAT2_2": "Muito ao lado!!!",
	"CHAT2_3": "Sem chance!!!",
	"CHAT2_4": "Você vai apanhar!",
	"CHAT2_5": "Isso é o que eu chamo de sorte",
	"CHAT2_6": "Tenho minha defesa antiaérea aqui!",
	"CHAT2_7": "Detone logo!",
	"CHAT3_0": "Não durma",
	"CHAT3_1": "Renda-se antes que seja tarde!",
	"CHAT3_2": "Veja e aprenda!",
	"CHAT3_3": "Vai dar uma cochilada!",
	"CHAT3_4": "Vai pra casa!",
	"CHAT3_5": "Acorde",
	"CHAT3_6": "Atire logo!",
	"CHAT3_7": "Você não tem chance!",
	"CHAT3_8": "Ande logo",
	"CHAT4_0": "Eu sou o cara!",
	"CHAT4_1": "Eu sou o melhor!",
	"CHAT4_2": "Vou ganhar!",
	"CHAT4_3": "Você tá ferrado!",
	"CHAT4_4": "Você joga tão mal que estou pensando em desistir",
	"CHAT4_5": "Minha vovó joga melhor do que isso!",
	"CHAT4_6": "É isso que você chama de tiro?",
	"CHAT4_7": "Chama pela mamãe",
	"CHAT5_0": "Você é homem?",
	"CHAT5_1": "Você é mulher?",
	"CHAT5_2": "Você gosta de mim?",
	"CHAT5_3": "Você gosta do jeito que eu jogo?",
	"CHAT5_4": "Lá vamos nós de novo!",
	"CHAT5_5": "Você pensava mesmo que me ia derrotar?",
	"CHAT6_0": "LOL",
	"CHAT6_1": "O_o",
	"CHAT6_2": "Come chumbo!",
	"CHAT6_3": "Ha-ha-ha!!!",
	"CHAT6_4": "Ho-ho-ho!",
	"CHAT6_5": "É isso aí!",
	"CHAT6_6": "Meu Deus!",
	"CHAT6_7": "Isto é Esparta!",
	"CHAT6_8": "Eu voltarei",
	"CHAT7_0": "Você teve muita sorte",
	"CHAT7_1": "Desisto",
	"CHAT7_2": "Me deixa ganhar!",
	"CHAT7_3": "Não tem mais graça",
	"CHAT7_4": "Não zombe de mim",
	"CHAT7_5": "Por que você sempre tem tanta sorte?!",
	"WAIT_0": "Quando você derrota um oponente de patente superior, sua patente sobe mais rapidamente.",
	"WAIT_1": "Você receberá pontos de bônus por cada navio que sobrevive a uma batalha.",
	"WAIT_2": "Se você receber uma chamada durante uma batalha, terá 60 segundos para regressar ao jogo.",
	"WAIT_3": "Se você sair do jogo durante uma batalha, perderá a batalha e seu nome surgirá na tabela de antirrecordes.",
	"WAIT_4": "Você pode desabilitar as mensagens recebidas nas configurações de bate-papo.",
	"WAIT_5": "Se você deixar escapar seu turno duas vezes, perderá a batalha.",
	"WAIT_6": "Você recebe 140 pontos por uma vitória e 80 pontos por uma derrota.",
	"WAIT_7": "Durante uma batalha, só pode minimizar o jogo 2 vezes - caso contrário, perderá a batalha.",
	"WAIT_8": "Use minas - elas destroem os torpedos e submarinos inimigos.",
	"WAIT_9": "Sorria!!! Sorrir prolonga a vida. :)",
	"WAIT_10": "Sua posição no ranking depende do número de vitórias conquistadas.",
	"PLAY_WHIT_OPPONENTS": "Os jogos são disputados em melhor de três batalhas.",
	"LITTLE_MONEY": "Você não tem dinheiro suficiente. Ganhe pontos por suas vitórias.",
	"CREATE_GAME": "Criar um jogo",
	"JOIN_GAME": "Juntar-se a um jogo",
	"SCAN": "Procurar",
	"WI_FI_BLUETOOTH_IOS" : "O modo offline requer que ambos os jogadores tenham Bluetooth ou Wi-Fi habilitado. Ir para as configurações?",
	"INFO_POPUP_FIRST_START" : "Insira seu nome e selecione uma bandeira.",
	"SEARCH_OPPONENT_IOS" : "Procurar oponente na plataforma iOS",
	"SEARCH_OPPONENT_OTHER_PLATFORM" : "Procurar oponente em outra plataforma",
	"RATE" : "Classificar",
	"BLUETOOTH_ERROR" : "Seu dispositivo não suporta Bluetooth",
	"ONLINE_ERROR" : "O modo online só está disponível em dispositivos de 64 bits",
	"INSTALL" : "Instalar",
	"INSTALL_GPLUS_1" : "O Google+ aplicativo é necessário para entrar em sua conta",
	"INSTALL_GPLUS_2" : "O Google+ aplicativo é necessário para iniciar sessão no multiplayer",
	"ACH_0" : "Primeira vitória",
	"ACH_1" : "Conquiste sua primeira vitória",
	"ACH_2" : "Suba sua patente",
	"BOARD_0" : "Melhores jogadores no modo clássico",
	"BOARD_1" : "Melhores jogadores no modo avançado",
	"BOARD_2" : "Se rendeu sem lutar",
	"WIN" : "Vitória",
	"Lose" : "Derrota",
	"PROFILE_RANK_0": "Recruta",
	"PROFILE_RANK_1": "Aprendiz-Marinheiro",
	"PROFILE_RANK_2": "Grumete",
	"PROFILE_RANK_3": "Marinheiro",
	"PROFILE_RANK_4": "Cabo",
	"PROFILE_RANK_5": "Terceiro-Sargento",
	"PROFILE_RANK_6": "Segundo-Sargento",
	"PROFILE_RANK_7": "Primeiro-Sargento",
	"PROFILE_RANK_8": "Suboficial",
	"PROFILE_RANK_9": "Guarda-Marinha",
	"PROFILE_RANK_10": "Segundo-Tenente",
	"PROFILE_RANK_11": "Primeiro-Tenente",
	"PROFILE_RANK_12": "Capitão-Tenente",
	"PROFILE_RANK_13": "Capitão-de-Fragata",
	"PROFILE_RANK_14": "Capitão-de-Mar-e-Guerra",
	"PROFILE_RANK_15": "Contra-Almirante",
	"PROFILE_RANK_16": "Vice-Almirante",
	"PROFILE_RANK_17": "Almirante",
	"RANK_CATEGORY_0": "Praças",
	"RANK_CATEGORY_1": "Sargentos",
	"RANK_CATEGORY_2": "Oficiais subalternos",
	"RANK_CATEGORY_3": "Oficiais intermediários",
	"RANK_CATEGORY_4": "Oficiais superiores",
	"RANK_CATEGORY_5": "Oficiais generais",
	"INSTALL": "Instalar",
	"INSTALL_GPLUS_1": "Para acessar sua conta, instale o Google+ aplicativo.",
	"INSTALL_GPLUS_2": "Para jogar online, instale o Google+ aplicativo",
	"AOD": "Agora, você tem a versão \"Pro\" graças ao App do Dia",
	"REMOVE_ADS": "Remover anúncios",
	"SAVE": "Salvar",
	"RESTORE": "Restaura\n compras",
	"BUY": "Comprar",
	"PIRATE_SCREEN": "Tema Piratas",
	"SPACE_SCREEN": "Tema Espaço",
	"MODERN_SCREEN": "Tema moderno",
	"CHAT_SCREEN": "Chat aumentado",
	"SHIPS_INFO": "Navios legais!",
	"PLANES_INFO": "Novos aviões!",
	"FACES_INFO": "Personagens únicos!",
	"ADS_INFO": "Remova os anúncios irritantes!",
	"CHAT_INFO": "Texto e emoticons únicos!",
	"ALL_SCREEN": "Melhor opção!",
	"ALL_INFO": "Todos os temas + sem anúncios + chat!",
	"STORE_INFO_POPUP": "Novidade! Agora você pode comprar temas únicos, um chat aumentado com suporte a digitação e se livrar dos anúncios!",
	"BUY_IN_GAME_POPUP": "Abrir a loja?",
	"SYNC_PROGRESS": "Deseja sincronizar o progresso do jogo em todos os seus dispositivos via cloud?",
	"QUARTERFINAL": "Quartas de final",
	"SEMIFINALS": "Semifinal",
	"FINAL": "Final",
	"CUP_INFO_GOOGLE_PLAY": "Torneios e taças",
	"CUP_INFO_GOOGLE_PLAY_2": "Participe de competições diárias para as taças de campeões. Colecione o conjunto inteiro de taças!",
	"CUP_INFO_POPUP": "Um novo torneio estará disponível amanhã.",
	"CUP_INFO_POPUP_2": "Para jogar agora, assista ao vídeo.",
	"IN_APP_CUP": "Participar de um torneio.",
	"IN_APP_CUP_2": "Um número ilimitado de tentativas para hoje.",
	"CHAT_INFO_VIDEO": "Assista ao vídeo para desbloquear o chat expandido para o próximo jogo.",
	"NEW_CUP": "Novo torneio",
	"UNFINISHED_CUP_CLASSIC": "O Torneio Modo Clássico não está concluído.",
	"UNFINISHED_CUP_ADVANCED": "O Torneio Modo Avançado não está concluído.",
	"SPECIAL_OFFER": "Oferta especial",
	"NOT_PLACED": "Nem todos os navios são colocados.",
	"WATCH_VIDEO_VS_ANDROID": "Veja um vídeo e ganhe 50 moedas grátis.",
	"WATCH_VIDEO_ONLINE": "Veja um vídeo após a batalha e ganhe agora mesmo 50 moedas grátis.",
	"PLAY_NOW": "Jogar Agora!"
}