{
 	"YES": "Ja",
 	"NO": "Nein",
 	"CANCEL":	"Abbrechen",
 	"PLAY": "Start",
 	"BACK": "Zurück",
	"RATE_INFO": "Wenn Ihnen das Spiel gefällt, bewerten Sie es doch bitte.",
	"SCORE": "Punktestand",
	"SAVE_GAME": "Sie haben ein nicht abgeschlossenes Spiel. Fortfahren?",
	"INTERNET_CONNECTION":	"Sie sind nicht mit dem Internet verbunden.",
	"LOADING": "Wird geladen",
	"WAIT": "Bitte warten Sie",
	"OPPONENT_LEFT":	"Der Gegner hat das Spiel verlassen.",
	"QUICK_GAME": "Schnelles Spiel",
	"INVITE_PLAYERS": "Spieler einladen",
	"INVITATIONS": "Einladungen",
	"HAS_INVITED": "hat Sie zum Spiel eingeladen.",
	"YOUR_NICKNAME": "Ihr Nickname",
	"POPUP_SIGN_IN_O": "Mit Google-Account einloggen",
	"EXIT_GAME": "Wollen Sie das Spiel wirklich verlassen?",
	"EXIT_GAME_SCENE": "Spiel schließen?",
	"RESET_PROGRESS_TEXT": "Sind Sie sicher, dass Sie den aktuellen Fortschritt zurücksetzen wollen?",
	"CLASSIC_MODE":	"Klassischer Spielmodus",
	"ADVANCED_MODE":	"Erweiterter Spielmodus",
	"MODE_10X10": "10x10",
	"MODE_20X20": "20x20",
	"BATTLE": "Los!",
	"SIGN_IN": "Einloggen",
	"SIGN_OUT": "Ausloggen",
	"PROFILE": "Profil",
	"WINS_BATTLES": "Siege/Gefechte",
	"RESET_PROGRESS": "Fortschritt zurücksetzen",
	"NAME": "Name",
	"EASY": "Einfach",
	"NORMAL": "Mittel",
	"HARD": "Schwer",
	"CAPTAIN_DROID": "Kapitän Droid",
	"CAPTAIN_JACK": "Kapitän Jack",
	"HELP_FIGHTER": "Jagdbomber greift den von Ihnen ausgewählten Bereich von 2x5 Kästchen an.",
	"HELP_TORPEDON": "Torpedoflugzeug feuert Torpedos auf das gegnerische Feld. Die Torpedos bewegen sich in der von Ihnen festgelegten horizontalen Richtung und treffen die Kästchen des Gegners.",
	"HELP_BOMBER": "Bombenflugzeug wirft fünf Bomben auf den von Ihnen ausgewählten Bereich von 3x3 Kästchen ab. Eine Bombe trifft ein Kästchen.",
	"HELP_A_BOMBER": "Benutzen Sie diese Waffe auf eigene Gefahr.",
	"HELP_PVO": "Das Flugzeugabwehrsystem wurde entwickelt, um Luftangriffe zu verhindern. Bei der Ausrichtung wird die Luftabwehrzone angezeigt, es sind zwei horizontale Linien. Wenn das Flugzeug des Gegners mit dem Rumpf in diese Zone gelangt, wird es zerstört.",
	"HELP_LOCATOR": "Das Radar zeigt die Lage der gegnerischen Schiffe in einem von Ihnen ausgewählten Bereich von 3x3 Kästchen.",
	"HELP_MINE": "Minen werden in freien Kästchen auf dem Spielfeld platziert. Landet der Gegner beim Ausführen eines Angriffs auf Ihrer Mine, so zeigt sich sein Kästchen mit den gleichen Koordinaten. Minen zerstören Torpedos und U-Boote des Gegners. ",
	"HELP_SUBMARINE": "U-Boote können nur auf freie Kästchen des gegnerischen Feldes entsendet werden. U-Boote  starten zwei Torpedos in vertikaler Richtung in zufälliger Reihenfolge.",
	"PVO_POPUP": "Das Flugabwehrsystem schaltet sich automatisch ein.",
	"SUBMARINE_POPUP": "Auf dem gegnerischen Feld ist kein freier Platz zum Entsenden des U-Bootes.",
	"CATEGORY": "Kategorie",
	"RANK": "Rang",
	"POINTS": "Punkte",
	"OPPONENT_COWARD": "Ihr Gegner hat aufgegeben.",
	"INFO_IF_YOU_EXIT": "Wenn Sie das Spiel verlassen, wird das als Niederlage gewertet.",
	"COWARD": "aufgegeben",
	"SLEEP": "eingeschlafen",
	"WAITING_OPPONENT": "Auf den Gegner warten",
	"SHOW_INCOMING": "Eingehende Nachrichten anzeigen",
	"CHAT0_0": "Hallo",
	"CHAT0_1": "Tschüs",
	"CHAT0_2": "Ja",
	"CHAT0_3": "Nein",
	"CHAT0_4": "Fangen wir an",
	"CHAT0_5": "So ist es recht",
	"CHAT0_6": "Ich weiß nicht",
	"CHAT0_7": "Vielleicht",
	"CHAT0_8": "Natürlich!",
	"CHAT1_0": "Guter Schuss",
	"CHAT1_1": "Cool!",
	"CHAT1_2": "Prachtkerl!",
	"CHAT1_3": "Wow!",
	"CHAT1_4": "Du spielst gut!",
	"CHAT1_5": "Ausgezeichnet",
	"CHAT1_6": "Gib niemals auf!",
	"CHAT1_7": "Ich glaube an dich!",
	"CHAT2_0": "Getroffen! Ohhh",
	"CHAT2_1": "Vorbei!",
	"CHAT2_2": "Biest!!!",
	"CHAT2_3": "Ohne Punkt!!!",
	"CHAT2_4": "Nimm dies!",
	"CHAT2_5": "Oh, Glück gehabt",
	"CHAT2_6": "Hier ist mein Luftschutz!",
	"CHAT2_7": "Atombombe hochgegangen!",
	"CHAT3_0": "Schlaf nicht",
	"CHAT3_1": "Gib auf, noch ist es nicht zu spät!",
	"CHAT3_2": "Schau und lerne!",
	"CHAT3_3": "Geh schlafen!",
	"CHAT3_4": "Geh nach Hause!",
	"CHAT3_5": "Nicht anhalten",
	"CHAT3_6": "Ja, jetzt schieß schon!",
	"CHAT3_7": "Du hast keine Chance!",
	"CHAT3_8": "Mach schneller",
	"CHAT4_0": "Ich bin ein Prachtkerl!",
	"CHAT4_1": "Ich bin der Beste!",
	"CHAT4_2": "Ich gewinne!",
	"CHAT4_3": "Das Spiel ist aus!",
	"CHAT4_4": "Wer so schlecht spielt, sollte aufgeben",
	"CHAT4_5": "Das kann ja meine Großmutter besser!",
	"CHAT4_6": "Na, wer schießt so?",
	"CHAT4_7": "Bitte doch deine Mutter um Hilfe",
	"CHAT5_0": "Bist du ein Junge?",
	"CHAT5_1": "Bist du ein Mädchen?",
	"CHAT5_2": "Gefalle ich dir?",
	"CHAT5_3": "Gefällt dir meine Spielweise?",
	"CHAT5_4": "Geht das wieder los?",
	"CHAT5_5": "Dachtest du wirklich, du könntest mich besiegen?",
	"CHAT6_0": "LOL",
	"CHAT6_1": "O_o",
	"CHAT6_2": "Trololo",
	"CHAT6_3": "Hahaha!!!",
	"CHAT6_4": "Hо-hо-hо!",
	"CHAT6_5": "Yeah, baby!",
	"CHAT6_6": "OMG",
	"CHAT6_7": "Das ist Sparta!",
	"CHAT6_8": "Ich komme wieder",
	"CHAT7_0": "Du hast wirklich Glück",
	"CHAT7_1": "Ich ergebe mich",
	"CHAT7_2": "Lass mich gewinnen!",
	"CHAT7_3": "Das ist nicht mehr lustig",
	"CHAT7_4": "Mit mir macht man keine Scherze",
	"CHAT7_5": "Und warum hast du die ganze Zeit Glück?!",
	"WAIT_0": "Das Besiegen eines Gegners mit höherem Rang erhöht Ihren Rang schneller.",
	"WAIT_1": "Für im Gefecht nicht gesunkene Schiffe bekommen Sie Zusatzpunkte.",
	"WAIT_2": "Wenn Sie während des Gefechts gerufen werden, haben Sie 60 Sekunden Zeit, um zum Spiel zurückzukehren.",
	"WAIT_3": "Wenn Sie das Spiel im Gefecht verlassen, wird das als Niederlage gewertet und Sie gelangen auf die Tabelle der Antirekorde.",
	"WAIT_4": "In den Chat-Einstellungen können Sie die eingehenden Nachrichten ausschalten.",
	"WAIT_5": "Wenn Sie zweimal Ihren Zug verpassen, wenn Sie an der Reihe sind, wird das als Niederlage gewertet.",
	"WAIT_6": "Für einen Sieg erhalten Sie 140 Punkte, für eine Niederlage 80.",
	"WAIT_7": "Während eines Gefechts dürfen Sie das Spiel nicht öfter als zweimal minimieren, sonst wird es als Niederlage gewertet.",
	"WAIT_8": "Verwenden Sie Minen, die zerstören Torpedos und U-Boote des Gegners.",
	"WAIT_9": "Lächeln!!! Nur Lächeln verlängert das Leben. :)",
	"WAIT_10": "Von der Anzahl Ihrer Siege hängt Ihre Position auf der Rangliste ab.",
	"PLAY_WHIT_OPPONENTS": "Das Spiel mit dem Gegner dauert bis zum zweiten Sieg.",
	"LITTLE_MONEY": "Sie haben nicht genügend Mittel. Sammeln Sie Punkte durch Siegen.",
	"CREATE_GAME": "Spiel erstellen",
	"JOIN_GAME": "Mitspielen",
	"SCAN": "Suchen",
	"WI_FI_BLUETOOTH_IOS" : "Für lokale Spiele müssen beide Spieler Bluetooth eingeschaltet haben oder sich im WLAN befinden. Zu den Einstellungen gehen?",
	"INFO_POPUP_FIRST_START" : "Geben Sie Ihren Namen ein und wählen Sie Ihre Flagge aus.",
	"SEARCH_OPPONENT_IOS" : "Gegner auf der Plattform iOS suchen",
	"SEARCH_OPPONENT_OTHER_PLATFORM" : "Gegner auf anderen Plattformen suchen",
	"RATE" : "Bewerten",
	"BLUETOOTH_ERROR" : "Bluetooth wird von Ihrem Gerät nicht unterstützt",
	"ONLINE_ERROR" : "Online-Spiel ist nur auf 64-Bit-Geräten möglich",
	"INSTALL" : "installieren",
	"INSTALL_GPLUS_1" : "Google+ Anwendung ist für die Anmeldung auf Ihrem Konto erforderlich",
	"INSTALL_GPLUS_2" : "Google+ Anwendung ist für die Anmeldung in multiplayer erforderlich",
	"ACH_0" : "Erster Sieg",
	"ACH_1" : "Holen Sie sich Ihren ersten Sieg",
	"ACH_2" : "Neue Militärkategorie",
	"BOARD_0" : "Beste Spieler im klassischen Modus",
	"BOARD_1" : "Beste Spieler im erweiterten Modus",
	"BOARD_2" : "Kampflos aufgegeben",
	"WIN" : "Sieg",
	"Lose" : "Niederlage",
	"PROFILE_RANK_0": "Kadett",
	"PROFILE_RANK_1": "Matrose",
	"PROFILE_RANK_2": "Obermatrose",
	"PROFILE_RANK_3": "Maat",
	"PROFILE_RANK_4": "Obermaat",
	"PROFILE_RANK_5": "Oberfeldwebel",
	"PROFILE_RANK_6": "Schiffsmaat",
	"PROFILE_RANK_7": "Marinefeldwebel",
	"PROFILE_RANK_8": "Marineoberfeldwebel",
	"PROFILE_RANK_9": "Unterleutnant",
	"PROFILE_RANK_10": "Leutnant",
	"PROFILE_RANK_11": "Oberleutnant",
	"PROFILE_RANK_12": "Korvettenkapitän",
	"PROFILE_RANK_13": "Fregattenkapitän",
	"PROFILE_RANK_14": "Kapitän zur See",
	"PROFILE_RANK_15": "Konteradmiral",
	"PROFILE_RANK_16": "Vizeadmiral",
	"PROFILE_RANK_17": "Admiral",
	"RANK_CATEGORY_0": "Matrosen und Soldaten",
	"RANK_CATEGORY_1": "Hauptfeldwebel und Unteroffiziere",
	"RANK_CATEGORY_2": "Fähnriche und Maate",
	"RANK_CATEGORY_3": "Junior-Offiziere",
	"RANK_CATEGORY_4": "Höhere Offiziere",
	"RANK_CATEGORY_5": "Oberoffiziere",
	"INSTALL": "Installieren",
	"INSTALL_GPLUS_1": "Google+ Anwendung ist für die Anmeldung auf Ihrem Konto erforderlich",
	"INSTALL_GPLUS_2": "Google+ Anwendung ist für die Anmeldung in multiplayer erforderlich",
	"AOD": "Du hast jetzt die Pro-Version, dank App des Tages",
	"REMOVE_ADS": "Werbung entfernen",
	"SAVE": "Speichern",
	"RESTORE": "Kauf\n wiederherstellen",
	"BUY": "Kaufen",
	"PIRATE_SCREEN": "Thema Piraten",
	"SPACE_SCREEN": "Thema Weltraum",
	"MODERN_SCREEN": "Thema Modernes",
	"CHAT_SCREEN": "Erweiterter Chat",
	"SHIPS_INFO": "Tolle Schiffe!",
	"PLANES_INFO": "Neue Flugzeuge!",
	"FACES_INFO": "Einzigartige Charaktere!",
	"ADS_INFO": "Lästige Werbung entfernen!",
	"CHAT_INFO": "Text und einzigartige Smileys eingeben!",
	"ALL_SCREEN": "Beste Auswahl",
	"ALL_INFO": "Alle Themen + Werbung entfernen + Chat!",
	"STORE_INFO_POPUP": "Neuheit! Jetzt können Sie neue Themen, den erweiterten Chat mit der Möglichkeit zum Eingeben von Text sowie das Entfernen von Werbung kaufen!",
	"BUY_IN_GAME_POPUP": "In den Laden gehen?",
	"SYNC_PROGRESS": "Möchtest du, dass der Spielfortschritt für alle deine Geräte über cloud synchronisiert wird?",
	"QUARTERFINAL": "Viertelfinale",
	"SEMIFINALS": "Halbfinale",
	"FINAL": "Finale",
	"CUP_INFO_GOOGLE_PLAY": "Tourniere und Pokal-Meisterschaften",
	"CUP_INFO_GOOGLE_PLAY_2": "Nimm an den täglichen Wettkämpfen um den Siegerpokal teil. Hol dir die gesamte Kollektion der Pokale!",
	"CUP_INFO_POPUP": "Morgen erwartet Sie ein neues Tournier. ",
	"CUP_INFO_POPUP_2": "Sehen Sie sich das Video an, um jetzt bereits zu spielen.",
	"IN_APP_CUP": "Teilnahme am Tournier.",
	"IN_APP_CUP_2": "Unbegrenzte Anzahl Versuche für heute.",
	"CHAT_INFO_VIDEO": "Sehen Sie sich das Video an, um den erweiterten Chat für das nächste Spiel freizuschalten.",
	"NEW_CUP": "Neues Tournier",
	"UNFINISHED_CUP_CLASSIC": "Sie haben das Tournier im klassischen Modus noch nicht abgeschlossen.",
	"UNFINISHED_CUP_ADVANCED": "Sie haben das Tournier im erweiterten Modus noch nicht abgeschlossen.",
	"SPECIAL_OFFER": "Spezialangebot",
	"NOT_PLACED": "Nicht alle Schiffe gesetzt.",
	"WATCH_VIDEO_VS_ANDROID": "Video ansehen und 50 Münzen gratis erhalten",
	"WATCH_VIDEO_ONLINE": "Nach dem Kampf ein Video ansehen und sofort 50 Münzen gratis erhalten.",
	"PLAY_NOW": "Jetzt\nspielen!"
}