{
 	"YES": "Tak",
 	"NO": "Nie",
 	"CANCEL": "Anuluj",
 	"PLAY": "Graj",
 	"BACK": "Wstecz",
	"RATE_INFO": "Jeśli gra przypadła ci do gustu, okaż swoje wsparcie, wystawiając ocenę.",
	"SCORE": "pkt",
	"SAVE_GAME": "Nie zakończono bieżącej gry. Wznowić?",
	"INTERNET_CONNECTION":	"Brak połączenia z Internetem.",
	"LOADING": "ładowanie",
	"WAIT": "Proszę czekać",
	"OPPONENT_LEFT": "Przeciwnik opuszcza grę.",
	"QUICK_GAME": "Szybka gra",
	"INVITE_PLAYERS": "Zaproś graczy",
	"INVITATIONS": "Zaproszenia",
	"HAS_INVITED": "zaprasza cię do gry.",
	"YOUR_NICKNAME": "Twój pseudonim.",
	"POPUP_SIGN_IN_O": "Zaloguj się na konto Google.",
	"EXIT_GAME": "Czy na pewno chcesz wyjść?",
	"EXIT_GAME_SCENE": "Wyjść z gry?",
	"RESET_PROGRESS_TEXT": "Czy chcesz zresetować obecny postęp?",
	"CLASSIC_MODE":	"Tryb klasyczny",
	"ADVANCED_MODE": "Tryb zaawansowany",
	"MODE_10X10": "10x10",
	"MODE_20X20": "20x20",
	"BATTLE": "Bitwa!",
	"SIGN_IN": "Zaloguj się",
	"SIGN_OUT": "Wyloguj się",
	"PROFILE": "Profil",
	"WINS_BATTLES": "wygrane/bitwy",
	"RESET_PROGRESS": "Zresetuj postępy",
	"NAME": "Imię",
	"EASY": "Łatwy",
	"NORMAL": "Normalny",
	"HARD": "Trudny",
	"CAPTAIN_DROID": "Kapitan Droid",
	"CAPTAIN_JACK": "Kapitan Jack",
	"HELP_FIGHTER": "Myśliwiec atakuje wybrany obszar 2x5.",
	"HELP_TORPEDON": "Bombowiec torpedowy zrzuca torpedę na pole przeciwnika. Pocisk porusza się wzdłuż obranego rzędu poziomego, uszkadzając pola przeciwnika.",
	"HELP_BOMBER": "Bombowiec zrzuca 5 bomb na wybrany obszar 3x3. Jedna bomba uszkadza jedno pole.",
	"HELP_A_BOMBER": "Korzystaj z tego uzbrojenia na własną odpowiedzialność.",
	"HELP_PVO": "System obrony przeciwlotniczej służy do zapobiegania nalotom. Strefa działania w trakcie rozstawienia początkowego jest podświetlona i ograniczona do 2 rzędów poziomych. Jeżeli kadłub samolotu przeciwnika przetnie tę strefę, zostanie strącony.",
	"HELP_LOCATOR": "Rada pokazuje położenie statków przeciwnika w wybranym obszarze 3x3.",
	"HELP_MINE": "Miny można postawić na dowolnym polu planszy do gry. Jeżeli przeciwnik trafi twoją minę, ujawnione zostaje pole o tych samych współrzędnych na jego planszy. Miny niszczą torpedy i okręty podwodne przeciwnika.",
	"HELP_SUBMARINE": "Okręty podwodne można skierować tylko na wolne pola na planszy przeciwnika. Okręt podwodny wystrzeliwuje pionowo 2 torpedy w losowej kolejności.",
	"PVO_POPUP": "System obrony przeciwlotniczej działa automatycznie.",
	"SUBMARINE_POPUP": "Na planszy przeciwnika nie ma wystarczającego miejsca na okręt podwodny.",
	"CATEGORY": "Kategoria",
	"RANK": "Ranga",
	"POINTS": "Pkt",
	"OPPONENT_COWARD": "Przeciwnik poddaje się.",
	"INFO_IF_YOU_EXIT": "Poddanie się oznacza przegraną w bitwie.",
	"COWARD": "poddaje się",
	"SLEEP": "zapada w sen",
	"WAITING_OPPONENT": "Oczekiwanie na przeciwnika",
	"SHOW_INCOMING": "pokaż nadchodzących",
	"CHAT0_0": "Cześć",
	"CHAT0_1": "Żegnaj",
	"CHAT0_2": "Tak",
	"CHAT0_3": "Nie",
	"CHAT0_4": "Ruszajmy",
	"CHAT0_5": "Potwierdzam",
	"CHAT0_6": "Nie wiem",
	"CHAT0_7": "Może",
	"CHAT0_8": "Pewnie!",
	"CHAT1_0": "Celny strzał",
	"CHAT1_1": "Świetnie!",
	"CHAT1_2": "Dajesz radę!",
	"CHAT1_3": "Łał!",
	"CHAT1_4": "Niezły z ciebie gracz!",
	"CHAT1_5": "Dobra robota",
	"CHAT1_6": "Nie poddawaj się!",
	"CHAT1_7": "Wierzę w ciebie!",
	"CHAT2_0": "Ogień! Taaaak!",
	"CHAT2_1": "Pudło!",
	"CHAT2_2": "Kulą w płot!!!",
	"CHAT2_3": "Bez szans!!!",
	"CHAT2_4": "No dalej!",
	"CHAT2_5": "Fiu, to dopiero fart",
	"CHAT2_6": "Oto moja obrona przeciwlotnicza!",
	"CHAT2_7": "Wal dowoli!",
	"CHAT3_0": "Nie tnij komara",
	"CHAT3_1": "Poddaj się, nim będzie za późno!",
	"CHAT3_2": "Patrz i ucz się!",
	"CHAT3_3": "Weź się prześpij.",
	"CHAT3_4": "Daj sobie spokój.",
	"CHAT3_5": "Pobudka",
	"CHAT3_6": "Dalej, strzelaj!",
	"CHAT3_7": "Jesteś bez szans.",
	"CHAT3_8": "Ruchy",
	"CHAT4_0": "Ukorz się!",
	"CHAT4_1": "To ja tu rządzę!",
	"CHAT4_2": "Wygram to!",
	"CHAT4_3": "Już po tobie!",
	"CHAT4_4": "Grasz taką beznadzieję, że chyba muszę to poddać",
	"CHAT4_5": "Moja babcia by cię ograła.",
	"CHAT4_6": "I to ma być strzelanie?",
	"CHAT4_7": "Poproś mamę o pomoc",
	"CHAT5_0": "Jesteś facetem?",
	"CHAT5_1": "Jesteś dziewczyną?",
	"CHAT5_2": "Lubisz mnie?",
	"CHAT5_3": "Podoba ci się mój styl gry?",
	"CHAT5_4": "Znowu to samo.",
	"CHAT5_5": "Naprawdę wydawało ci się, że wygrasz?",
	"CHAT6_0": "LOL",
	"CHAT6_1": "O_o",
	"CHAT6_2": "Żryj gruz!",
	"CHAT6_3": "Ha, ha, ha!!!",
	"CHAT6_4": "Ho, ho, ho!",
	"CHAT6_5": "Tak, złotko!",
	"CHAT6_6": "OMG",
	"CHAT6_7": "To jest Sparta!",
	"CHAT6_8": "Jeszcze wrócę",
	"CHAT7_0": "Poszczęściło ci się",
	"CHAT7_1": "Poddaję się",
	"CHAT7_2": "Daj mi wygrać!",
	"CHAT7_3": "Żarty się skończyły",
	"CHAT7_4": "Nie zadzieraj ze mną",
	"CHAT7_5": "Dlaczego ciągle farcisz?!",
	"WAIT_0": "Gdy pokonasz przeciwnika z wyższą rangą, twoja własna urośnie szybciej.",
	"WAIT_1": "Będziesz otrzymywać dodatkowe punkty za statki, które przetrwały kolejne bitwy.",
	"WAIT_2": "Jeżeli podczas bitwy ktoś do ciebie zadzwoni, będziesz mieć 60 sekund na jej wznowienie.",
	"WAIT_3": "Jeśli wyjdziesz z gry w trakcie bitwy, przegrasz, a twoje imię zostanie umieszczone na liście najgorszych graczy.",
	"WAIT_4": "Przychodzące wiadomości można wyłączyć w ustawieniach czatu.",
	"WAIT_5": "Jeśli przegapisz swoją turę dwukrotnie, przegrasz.",
	"WAIT_6": "Za zwycięstwo otrzymuje się 140 punktów, a za przegraną 80.",
	"WAIT_7": "Grę w trakcie bitwy można zminimalizować jedynie dwukrotnie, w przeciwnym razie przegrywa się.",
	"WAIT_8": "Korzystaj z min - służą do niszczenia torped i okrętów podwodnych przeciwnika.",
	"WAIT_9": "Uśmiech!!! Uśmiech wydłuża długość życia. :)",
	"WAIT_10": "Pozycja rankingowa zależy od liczby odniesionych zwycięstw.",
	"PLAY_WHIT_OPPONENTS": "Z przeciwnikiem gra się do 2 zwycięstw.",
	"LITTLE_MONEY": "Masz za mało pieniędzy. Zdobywaj punkty odnosząc zwycięstwa.",
	"CREATE_GAME": "Stwórz grę",
	"JOIN_GAME": "Dołącz do gry",
	"SCAN": "Skanuj",
	"WI_FI_BLUETOOTH_IOS" : "Do gry w trybie offline wymagana jest technologia Bluetooth lub połączenie z siecią Wi-Fi. Przejść do ustawień?",
	"INFO_POPUP_FIRST_START" : "Wprowadź imię i wybierz flagę.",
	"SEARCH_OPPONENT_IOS" : "Poszukuj wyłącznie przeciwników z urządzeniami iOS",
	"SEARCH_OPPONENT_OTHER_PLATFORM" : "Poszukuj przeciwników na innych platformach",
	"RATE" : "Ocena",
	"BLUETOOTH_ERROR" : "Twoje urządzenie nie obsługuje technologii Bluetooth",
	"ONLINE_ERROR" : "Ten tryb online działa wyłącznie na urządzeniach 64-bitowych",
	"INSTALL" : "Instaluj",
	"INSTALL_GPLUS_1" : "Do zalogowania się na konto wymagana jest aplikacja Google+",
	"INSTALL_GPLUS_2" : "Do gry wieloosobowej wymagana jest aplikacja Google+",
	"ACH_0" : "Pierwsze zwycięstwo",
	"ACH_1" : "Odnieś 1. zwycięstwo",
	"ACH_2" : "Zdobądź nową rangę",
	"BOARD_0" : "Najlepsi gracze trybu klasycznego",
	"BOARD_1" : "Najlepsi gracze trybu zaawansowanego",
	"BOARD_2" : "Poddano się bez walki",
	"WIN" : "Zwycięstwo",
	"Lose" : "Porażka",
	"PROFILE_RANK_0": "Praktykant pokładowy",
	"PROFILE_RANK_1": "Młodszy marynarz",
	"PROFILE_RANK_2": "Marynarz pokładowy",
	"PROFILE_RANK_3": "Bosmanmat",
	"PROFILE_RANK_4": "Starszy bosmanmat",
	"PROFILE_RANK_5": "Bosman",
	"PROFILE_RANK_6": "Starszy bosman",
	"PROFILE_RANK_7": "Młodszy chorąży marynarki",
	"PROFILE_RANK_8": "Chorąży marynarki",
	"PROFILE_RANK_9": "Starszy chorąży marynarki",
	"PROFILE_RANK_10": "Podporucznik marynarki",
	"PROFILE_RANK_11": "Porucznik marynarki",
	"PROFILE_RANK_12": "Kapitan",
	"PROFILE_RANK_13": "Komandor porucznik",
	"PROFILE_RANK_14": "Komandor",
	"PROFILE_RANK_15": "Kontradmirał",
	"PROFILE_RANK_16": "Wiceadmirał",
	"PROFILE_RANK_17": "Admirał",
	"RANK_CATEGORY_0": "Marynarze i żołnierze",
	"RANK_CATEGORY_1": "Podoficerowie",
	"RANK_CATEGORY_2": "Chorąży",
	"RANK_CATEGORY_3": "Oficerowie kompanii",
	"RANK_CATEGORY_4": "Oficerowie polowi",
	"RANK_CATEGORY_5": "Oficerowie flagowi",
	"INSTALL": "Instaluj",
	"INSTALL_GPLUS_1": "Do zalogowania się na konto wymagana jest aplikacja Google+",
	"INSTALL_GPLUS_2": "Do gry wieloosobowej wymagana jest aplikacja Google+",
	"AOD": "Dzięki aplikacji App of the Day posiadasz teraz wersję Pro gry",
	"REMOVE_ADS": "Usuń reklamy",
	"SAVE": "Zapisz",
	"RESTORE": "Przywróć\n zakupy",
	"BUY": "Kup",
	"PIRATE_SCREEN": "Motwy piracki",
	"SPACE_SCREEN": "Motwy kosmiczny",
	"MODERN_SCREEN": "Motwy nowoczesny",
	"CHAT_SCREEN": "Poszerzony czat",
	"SHIPS_INFO": "Świetne statki!",
	"PLANES_INFO": "Nowe samoloty!",
	"FACES_INFO": "Unikalne postaci!",
	"ADS_INFO": "Usuń upierdliwe reklamy!",
	"CHAT_INFO": "Tekst i wyjątkowe emotikony!",
	"ALL_SCREEN": "Najlepszy wybór!",
	"ALL_INFO": "Wszystkie motywy + brak reklam + czat!",
	"STORE_INFO_POPUP": "Nowość! Możesz teraz pozbyć się reklam oraz kupować wyjątkowe motywy i poszerzony czat z wsparciem dla pisania.",
	"BUY_IN_GAME_POPUP": "Otworzyć sklep?",
	"SYNC_PROGRESS": "Czy zachować synchronizację postępu w grze za pomocą chmury dla wszystkich twoich urządzeń?",
	"QUARTERFINAL": "Ćwierćfinał",
	"SEMIFINALS": "Półfinał",
	"FINAL": "Finał",
	"CUP_INFO_GOOGLE_PLAY": "Turnieje i puchary",
	"CUP_INFO_GOOGLE_PLAY_2": "Weź udział w codziennych zawodach o puchar mistrzowski. Zbierz całą kolekcję pucharów!",
	"CUP_INFO_POPUP": "Nowy turniej stanie się dostępny jutro.",
	"CUP_INFO_POPUP_2": "Aby zagrać teraz, obejrzyj wideo lub zakup nieograniczoną liczbę prób na dzisiaj.",
	"IN_APP_CUP": "Bierz udział w turnieju.",
	"IN_APP_CUP_2": "Nieograniczona liczba prób na dzisiaj.",
	"CHAT_INFO_VIDEO": "Obejrzyj wideo, aby odblokować w następnej grze poszerzony czat.",
	"NEW_CUP": "Nowy turniej",
	"UNFINISHED_CUP_CLASSIC": "Tryb klasyczny nie został ukończony.",
	"UNFINISHED_CUP_ADVANCED": "Tryb zaawansowany nie został ukończony.",
	"SPECIAL_OFFER": "Oferta specjalna",
	"NOT_PLACED": "Nie wszystkie statki są umieszczone.",
	"WATCH_VIDEO_VS_ANDROID": "Obejrzyj film i dostań 50 monet bezpłatnie",
	"WATCH_VIDEO_ONLINE": "Obejrzyj film po boju i dostań 50 monet bezpłatnie już teraz.",
	"PLAY_NOW": "Graj teraz!"
}