{
  "YES":"Так",
  "NO":"Ні",
  "CANCEL":"Скасувати",
  "PLAY":"Грати",
  "BACK":"Назад",
  "RATE_INFO":"Якщо вам сподобалась гра, будь ласка, підтримайте нас та оцініть.",
  "SCORE":"очки",
  "SAVE_GAME":"У вас є незакінчена гра. Продовжити?",
  "INTERNET_CONNECTION":"Відсутнє з'єднання з Інтернетом.",
  "LOADING":"завантаження",
  "WAIT":"Будь ласка, зачекайте",
  "OPPONENT_LEFT":"Противник вийшов із гри.",
  "QUICK_GAME":"Швидка гра",
  "INVITE_PLAYERS":"Запросити гравців",
  "INVITATIONS":"Запрошення",
  "HAS_INVITED":"запрошує вас зіграти в гру.",
  "YOUR_NICKNAME":"Ваш псевдонім",
  "POPUP_SIGN_IN_O":"Увійдіть в обліковий запис Google",
  "EXIT_GAME":"Ви дійсно хочете вийти?",
  "EXIT_GAME_SCENE":"Завершити гру?",
  "RESET_PROGRESS_TEXT":"Ви дійсно хочете скинути поточні досягнення?",
  "CLASSIC_MODE":"Класичний режим",
  "ADVANCED_MODE":"Розширений режим",
  "MODE_10X10":"10x10",
  "MODE_20X20":"20x20",
  "BATTLE":"У бій!",
  "SIGN_IN":"Увійти",
  "SIGN_OUT":"Вийти",
  "PROFILE":"Профіль",
  "WINS_BATTLES":"перемог\/боїв",
  "RESET_PROGRESS":"Скинути досягнення",
  "NAME":"Ім'я",
  "EASY":"Легкий",
  "NORMAL":"Середній",
  "HARD":"Важкий",
  "CAPTAIN_DROID":"Капітан Дроїд",
  "CAPTAIN_JACK":"Капітан Джек",
  "HELP_FIGHTER":"Винищувач атакує вибрану вами область 2х5 клітин.",
  "HELP_TORPEDON":"Торпедоносець скидає торпеду на поле суперника. Торпеда рухається по заданому вами горизонтальному рядку, уражаючи клітинки суперника.",
  "HELP_BOMBER":"Бомбардувальник скидає 5 бомб на обрану вами область 3х3 клітинки. Одна бомба вражає одну клітинку.",
  "HELP_A_BOMBER":"Використовуйте цю зброю на свій страх та ризик.",
  "HELP_PVO":"Система ППО служить для запобігання авіаударів. При розміщенні вказується зона дії протиповітряної оборони, вона дорівнює двом горизонтальним рядках. Якщо літак противника потрапить фюзеляжем у цю зону, то він буде знищений.",
  "HELP_LOCATOR":"Радар показує розташування кораблів супротивника в обраній вами області 3x3 клітинки.",
  "HELP_MINE":"Міни розставляються у вільні клітинки ігрового поля. Якщо противник при завданні удару потрапив на вашу міну, то відкривається його клітинка за такими же координатами. Міни знищують торпеди та підводні човни противника.",
  "HELP_SUBMARINE":"Підводний човен можна відправити тільки на вільні клітинки поля суперника. Підводний човен запускає 2 торпеди по вертикалі в довільному порядку.",
  "PVO_POPUP":"Система ППО спрацьовує автоматично.",
  "SUBMARINE_POPUP":"На полі суперника нема вільного місця для запуску підводного човна.",
  "CATEGORY":"Категорія",
  "RANK":"Ранг",
  "POINTS":"Очки",
  "OPPONENT_COWARD":"Ваш супротивник здався.",
  "INFO_IF_YOU_EXIT":"Якщо ви покинете гру, то вам буде зараховано поразку.",
  "COWARD":"здався",
  "SLEEP":"заснув",
  "WAITING_OPPONENT":"Очікування супротивника",
  "SHOW_INCOMING":"показувати вхідні",
  "CHAT0_0":"Привіт",
  "CHAT0_1":"Бувай",
  "CHAT0_2":"Так",
  "CHAT0_3":"Ні",
  "CHAT0_4":"Почали",
  "CHAT0_5":"Все правильно",
  "CHAT0_6":"Я не знаю",
  "CHAT0_7":"Може бути",
  "CHAT0_8":"Звичайно!",
  "CHAT1_0":"Хороший постріл",
  "CHAT1_1":"Круто!",
  "CHAT1_2":"Молодець!",
  "CHAT1_3":"Ух!",
  "CHAT1_4":"Ти добре граєш!",
  "CHAT1_5":"Хороша робота",
  "CHAT1_6":"Ніколи не здавайся!",
  "CHAT1_7":"Я вірю в тебе!",
  "CHAT2_0":"Влучив! Є-є-є!",
  "CHAT2_1":"Мимо!",
  "CHAT2_2":"Мазило!!!",
  "CHAT2_3":"Без шансів!!!",
  "CHAT2_4":"Отримуй!",
  "CHAT2_5":"Ух, пощастило",
  "CHAT2_6":"А тут у мене ППО!",
  "CHAT2_7":"Атомна бомба пішла!",
  "CHAT3_0":"Не спи",
  "CHAT3_1":"Здавайся, поки не пізно!",
  "CHAT3_2":"Дивись та вчись!",
  "CHAT3_3":"Йди поспи!",
  "CHAT3_4":"Йди додому!",
  "CHAT3_5":"Не гальмуй",
  "CHAT3_6":"Давай, стріляй!",
  "CHAT3_7":"У тебе нема шансів!",
  "CHAT3_8":"Давай швидше",
  "CHAT4_0":"Я молодець!",
  "CHAT4_1":"Я кращий(а)!",
  "CHAT4_2":"Я виграю!",
  "CHAT4_3":"Твоя пісенька проспівана!",
  "CHAT4_4":"Слабо граєш, мабуть, піддамся",
  "CHAT4_5":"Моя бабуся грає краще!",
  "CHAT4_6":"Ну хто так стріляє?",
  "CHAT4_7":"Клич на допомогу свою маму",
  "CHAT5_0":"Ви хлопець?",
  "CHAT5_1":"Ви дівчина?",
  "CHAT5_2":"Я тобі подобаюся?",
  "CHAT5_3":"Вам подобається, як я граю?",
  "CHAT5_4":"Ну скільки можна!",
  "CHAT5_5":"Ви реально думали мене перемогти?",
  "CHAT6_0":"LOL",
  "CHAT6_1":"O_o",
  "CHAT6_2":"Trololo",
  "CHAT6_3":"Ха-ха-ха!!!",
  "CHAT6_4":"Хо-хо-хо!",
  "CHAT6_5":"Йе, бейба!",
  "CHAT6_6":"OMG",
  "CHAT6_7":"Це Спарта!",
  "CHAT6_8":"Я повернуся",
  "CHAT7_0":"Тобі реально пощастило",
  "CHAT7_1":"Я здаюся",
  "CHAT7_2":"Дай мені виграти!",
  "CHAT7_3":"Це вже не смішно",
  "CHAT7_4":"Зі мною не треба жартувати",
  "CHAT7_5":"Ну чому тобі весь час щастить?!",
  "WAIT_0":"Коли ви перемагаєте суперника з більш високим званням, ваше звання зростає швидше.",
  "WAIT_1":"За не потоплені в бою кораблі ви отримаєте додаткові очки.",
  "WAIT_2":"Якщо під час бою вам зателефонували, то у вас є 60 секунд, щоб повернутись у гру.",
  "WAIT_3":"Якщо ви покинете гру під час бою, то вам буде зараховано поразку і ви потрапите в таблицю анти-рекордів.",
  "WAIT_4":"У налаштуваннях чату можна вимкнути вхідні повідомлення.",
  "WAIT_5":"Якщо ви пропустили свій хід двічі, вам буде зараховано поразку.",
  "WAIT_6":"За перемогу ви отримаєте 140 очок для покупки бонусів, 80 очок за поразку.",
  "WAIT_7":"Під час бою ви можете згорнути гру не більше двох разів, у протилежному випадку вам буде зараховано поразку.",
  "WAIT_8":"Використовуйте міни, вони знищують торпеди та підводні човни суперника.",
  "WAIT_9":"Посміхайтеся!!! Посмішка продовжує життя. :)",
  "WAIT_10":"Від кількості перемог залежить ваша позиція в таблиці лідерів.",
  "PLAY_WHIT_OPPONENTS":"Гра з противником триває до двох перемог.",
  "LITTLE_MONEY":"Вам не вистачає грошей. Заробляйте очки здобуваючи перемоги.",
  "CREATE_GAME":"Створити гру",
  "JOIN_GAME":"Приєднатися до гри",
  "SCAN":"Пошук",
  "WI_FI_BLUETOOTH_IOS":"Для локальної гри потрібно, щоб в обох гравців був увімкнений Bluetooth або Wi-Fi. Перейти до налаштування?",
  "INFO_POPUP_FIRST_START":"Введіть своє ім'я та виберіть прапор.",
  "SEARCH_OPPONENT_IOS":"Шукати суперника лише з платформою iOS",
  "SEARCH_OPPONENT_OTHER_PLATFORM":"Шукати суперника тільки з іншою платформою",
  "RATE":"Оцінити",
  "BLUETOOTH_ERROR":"Bluetooth не підтримується вашим пристроєм",
  "ONLINE_ERROR":"Гра в мережі можлива тільки на 64 бітних пристроях",
  "INSTALL":"Установити",
  "INSTALL_GPLUS_1":"Щоб увійти в обліковий запис, установіть додаток Google+",
  "INSTALL_GPLUS_2":"Щоб грати в мережі, установіть додаток Google+",
  "ACH_0":"Перша перемога",
  "ACH_1":"Здобудьте свою першу перемогу",
  "ACH_2":"Отримайте новий ранг",
  "BOARD_0":"Кращі гравці класичного режиму",
  "BOARD_1":"Кращі гравці розширеного режиму",
  "BOARD_2":"Здалися без бою",
  "WIN":"Перемога",
  "Lose":"Поразка",
  "PROFILE_RANK_0":"Курсант",
  "PROFILE_RANK_1":"Матрос",
  "PROFILE_RANK_2":"Старший матрос",
  "PROFILE_RANK_3":"Старшина 2 статті",
  "PROFILE_RANK_4":"Старшина 1 статті",
  "PROFILE_RANK_5":"Головний старшина",
  "PROFILE_RANK_6":"Головний корабельний старшина",
  "PROFILE_RANK_7":"Мічман",
  "PROFILE_RANK_8":"Старший мічман",
  "PROFILE_RANK_9":"Молодший лейтенант",
  "PROFILE_RANK_10":"Лейтенант",
  "PROFILE_RANK_11":"Старший лейтенант",
  "PROFILE_RANK_12":"Капітан III рангу",
  "PROFILE_RANK_13":"Капітан ІІ рангу",
  "PROFILE_RANK_14":"Капітан І рангу",
  "PROFILE_RANK_15":"Контр-адмірал",
  "PROFILE_RANK_16":"Віце-адмірал",
  "PROFILE_RANK_17":"Адмірал",
  "RANK_CATEGORY_0":"Матроси та солдати",
  "RANK_CATEGORY_1":"Старшини та сержанти",
  "RANK_CATEGORY_2":"Прапорщики та мічмани",
  "RANK_CATEGORY_3":"Молодший офіцерський склад",
  "RANK_CATEGORY_4":"Старший офіцерський склад",
  "RANK_CATEGORY_5":"Вищий офіцерський склад",
  "AOD":"Завдяки додатку дня тепер у вас є повна версія",
  "REMOVE_ADS":"Прибрати рекламу",
  "SAVE":"Зберегти",
  "RESTORE":"Відновити\n покупки",
  "BUY":"Купити",
  "PIRATE_SCREEN":"Піратська тема",
  "SPACE_SCREEN":"Космічна тема",
  "MODERN_SCREEN": "Сучасна тема",
  "CHAT_SCREEN":"Розширений чат",
  "SHIPS_INFO":"Круті кораблі!",
  "PLANES_INFO":"Нові літаки!",
  "FACES_INFO":"Унікальні персонажі!",
  "ADS_INFO":"Прибрати набридливу рекламу!",
  "CHAT_INFO":"Введення тексту та унікальні смайли!",
  "ALL_SCREEN":"Кращий вибір!",
  "ALL_INFO":"Всі теми + без реклами + чат!",
  "STORE_INFO_POPUP":"Новинка! Тепер ви можете придбати унікальні теми, розширений чат з можливістю друкувати текст, а також вимкнути рекламу!",
  "BUY_IN_GAME_POPUP":"Перейти до магазину?",
  "SYNC_PROGRESS":"Синхронізувати ігровий прогрес на всіх ваших пристроях через \"хмару\"?",
  "QUARTERFINAL":"Чвертьфінал",
  "SEMIFINALS":"Півфінал",
  "FINAL":"Фінал",
  "CUP_INFO_GOOGLE_PLAY":"Турніри та кубки",
  "CUP_INFO_GOOGLE_PLAY_2":"Бери участь у щоденних змаганнях за кубок переможця. Збери всю колекцію кубків!",
  "CUP_INFO_POPUP":"Новий турнір буде доступний завтра.",
  "CUP_INFO_POPUP_2":"Щоб грати зараз, перегляньте відео.",
  "IN_APP_CUP":"Участь у турнірі.",
  "IN_APP_CUP_2":"Необмежена кількість спроб на сьогодні.",
  "CHAT_INFO_VIDEO":"Перегляньте відео, щоб розблокувати розширений чат на наступну гру.",
  "NEW_CUP":"Новий турнір",
  "UNFINISHED_CUP_CLASSIC":"Ваш турнір у класичному режимі ще не завершено.",
  "UNFINISHED_CUP_ADVANCED":"Ваш турнір у розширеному режимі ще не завершено.",
	"SPECIAL_OFFER": "Спеціальна пропозиція",
	"NOT_PLACED": "Збереження неможливо, не всі кораблі розставлені.",
	"WATCH_VIDEO_VS_ANDROID": "Подивися відео і отримай 50 монет безкоштовно.",
	"WATCH_VIDEO_ONLINE": "Посмотри видео после боя и получи 50 монет бесплатно прямо сейчас.",
	"PLAY_NOW": "Грай\nзараз!"
}